{
  "$schema" : "http://json-schema.org/draft-04/schema#",
  "title" : "Recipe",
  "type" : "object",
  "properties" : {
    "name" : {
      "type" : "string"
    },
    "url" : {
      "type" : "string",
      "format": "uri"
    },
    "images" : {
      "type": "array",
      "items": {
        "type": "string",
        "format": "uri"
      }
    },
    "tags" : {
      "type": "array",
      "items": {
        "type": "string"
      }
    },
    "cuisine_by_nationality" : {
      "type": "array",
      "items": {
        "type": "string"
      }
    },
    "recipe_type" : {
      "type": "array",
      "items": {
        "type": "string"
      }
    },
    "context" : {
      "type": "array",
      "items": {
        "type": "string"
      }
    },
    "description" : {
      "type": "string"
    },
    "recipe_date" : {
      "type": "string"
    },
    "cooking_time" : {
      "type": "string"
    },
    "preparation_time" : {
      "type": "string"
    },
    "skill" : {
      "type": "string"
    },
    "number_of_servings" : {
      "type": "number"
    },
    "ingredients" : {
      "type": "array",
      "items": {
        "type": "object",
        "properties": {
          "name" : {
            "type": "array",
            "items": {
              "type": "string"
            }
          },
          "quantity" : {
            "type": "string"
          },
          "full" : {
            "type": "string"
          }
        }
      }
    },
    "step_by_step_recipe" : {
      "type": "array",
      "items": {
        "type": "object",
        "properties": {
          "images" : {
            "type": "array",
            "items": {
              "type": "string"
            }
          },
          "description" : {
            "type": "string"
          }
        }
      }
    },
    "recipe" : {
      "type": "string"
    },
    "recipe_images" : {
      "type": "array",
      "items": {
        "type": "string"
      }
    }
  }
}